{
    "KPlugin": {
        "Authors": [
            {
                "Email": "joris.guisson@gmail.com",
                "Name": "Joris Guisson",
                "Name[bg]": "Joris Guisson",
                "Name[ca@valencia]": "Joris Guisson",
                "Name[ca]": "Joris Guisson",
                "Name[cs]": "Joris Guisson",
                "Name[de]": "Joris Guisson",
                "Name[en_GB]": "Joris Guisson",
                "Name[eo]": "Joris Guisson",
                "Name[es]": "Joris Guisson",
                "Name[eu]": "Joris Guisson",
                "Name[fi]": "Joris Guisson",
                "Name[fr]": "Joris Guisson",
                "Name[gl]": "Joris Guisson",
                "Name[hu]": "Joris Guisson",
                "Name[ia]": "Joris Guisson",
                "Name[it]": "Joris Guisson",
                "Name[ka]": "Joris Guisson",
                "Name[ko]": "Joris Guisson",
                "Name[nl]": "Joris Guisson",
                "Name[pl]": "Joris Guisson",
                "Name[pt]": "Joris Guisson",
                "Name[pt_BR]": "Joris Guisson",
                "Name[ru]": "Joris Guisson",
                "Name[sk]": "Joris Guisson",
                "Name[sl]": "Joris Guisson",
                "Name[sv]": "Joris Guisson",
                "Name[tr]": "Joris Guisson",
                "Name[uk]": "Joris Guisson",
                "Name[x-test]": "xxJoris Guissonxx",
                "Name[zh_CN]": "Joris Guisson"
            }
        ],
        "Description": "Specify the download order of a multi-file torrent",
        "Description[bg]": "Задаване реда на изтегляне за многофайлов торент",
        "Description[ca@valencia]": "Especifica l'ordre de baixada d'un torrent amb múltiples fitxers",
        "Description[ca]": "Especifica l'ordre de baixada d'un torrent amb múltiples fitxers",
        "Description[cs]": "Zvolení pořadí stahovaných souborů u torrentů obsahujících více souborů",
        "Description[de]": "Download-Reihenfolge bei Torrents festlegen, die aus mehreren Dateien bestehen",
        "Description[en_GB]": "Specify the download order of a multi-file torrent",
        "Description[eo]": "Indiki la elŝutan sinsekvon de plurdosiera torento",
        "Description[es]": "Indique el orden de descarga de un torrent de varios archivos",
        "Description[eu]": "Zehaztu zama-jaisteko hurrenkera, fitxategi anitzeko torrent batean",
        "Description[fi]": "Määritä useampitiedostoisen torrentin latausjärjestys",
        "Description[fr]": "Spécifie l'ordre de téléchargement d'un torrent multi-fichiers",
        "Description[gl]": "Indicar a orde de descarga dos ficheiros dun torrente.",
        "Description[hu]": "Többfájlos torrentek letöltési sorrendjének megadása",
        "Description[ia]": "Specifica le ordine de discargar de un torrent multi-file",
        "Description[it]": "Specifica l'ordine di scaricamento di un torrent con più file",
        "Description[ka]": "მიუთითეთ გადმოწერის მიმდევრობა მრავალფაილიანი ტორენტისთვის",
        "Description[ko]": "여러 파일이 있는 토렌트의 다운로드 순서 결정",
        "Description[nl]": "Specificeer de volgorde voor het downloaden van een multi-bestands-torrent",
        "Description[pl]": "Ustalanie kolejności pobierania plików w torrentach wieloplikowych",
        "Description[pt]": "Indicar a ordem de transferência de uma torrente multi-ficheiros para o KTorrent",
        "Description[pt_BR]": "Especifica a ordem de download de um torrent com vários arquivos",
        "Description[ru]": "Модуль для определения порядка загрузки, если торрент содержит несколько файлов.",
        "Description[sk]": "Určenie poradia sťahovania torrentu s viacerými súbormi",
        "Description[sl]": "Določi vrstni reda prejemov za torrente z več datotekami",
        "Description[sv]": "Ange nerladdningsordningen för ett dataflöde med flera filer",
        "Description[tr]": "Birden fazla dosyaya sahip bir torrentin indirme sırasını belirle",
        "Description[uk]": "Додаток для визначення порядку отримання багатофайлового торента",
        "Description[x-test]": "xxSpecify the download order of a multi-file torrentxx",
        "Description[zh_CN]": "指定多文件种子的下载顺序",
        "EnabledByDefault": false,
        "Icon": "view-sort-ascending",
        "Id": "DownloadOrderPlugin",
        "License": "GPL",
        "Name": "Download Order",
        "Name[ar]": "ترتيب التّنزيل",
        "Name[bg]": "Ред на изтегляне",
        "Name[bs]": "Redoslijed preuzimanja",
        "Name[ca@valencia]": "Ordre de baixada",
        "Name[ca]": "Ordre de baixada",
        "Name[cs]": "Pořadí stahování",
        "Name[da]": "Downloadrækkefølge",
        "Name[de]": "Download-Reihenfolge",
        "Name[el]": "Σειρά λήψης",
        "Name[en_GB]": "Download Order",
        "Name[eo]": "Sinsekvo de Elŝuto",
        "Name[es]": "Orden de descarga",
        "Name[et]": "Allalaadimise järjekord",
        "Name[eu]": "Zama-jaiste hurrenkera",
        "Name[fi]": "Latausjärjestys",
        "Name[fr]": "Ordre de téléchargement",
        "Name[ga]": "Ord Íosluchtaithe",
        "Name[gl]": "Orde de descarga",
        "Name[hu]": "Letöltési sorrend",
        "Name[ia]": "Ordine de discargar",
        "Name[is]": "Uppröðun niðurhals",
        "Name[it]": "Ordine di scaricamento",
        "Name[ja]": "ダウンロード順序",
        "Name[ka]": "გადმოწერის მიმდევრობა",
        "Name[kk]": "Жүктеп алу реті",
        "Name[km]": "លំដាប់​ទាញយក",
        "Name[ko]": "다운로드 순서",
        "Name[lt]": "Atsiuntimo tvarka",
        "Name[lv]": "Lejupielādes kārtība",
        "Name[mr]": "डाउनलोड क्रम",
        "Name[nb]": "Nedlastingsrekkefølge",
        "Name[nds]": "Daallaadreeg",
        "Name[nl]": "Bestandsdownload-volgorde",
        "Name[nn]": "Nedlastingsrekkjefølgje",
        "Name[pl]": "Kolejność pobierania",
        "Name[pt]": "Ordem de Transferência",
        "Name[pt_BR]": "Ordem de download",
        "Name[ro]": "Ordinea descărcării",
        "Name[ru]": "Порядок загрузки",
        "Name[si]": "බාගැනීම් පෙළගැස්ම",
        "Name[sk]": "Poradie sťahovania",
        "Name[sl]": "Vrstni red prejemanja",
        "Name[sq]": "Rendi i Shkarkimit",
        "Name[sr@ijekavian]": "Редослијед преузимања",
        "Name[sr@ijekavianlatin]": "Redoslijed preuzimanja",
        "Name[sr@latin]": "Redosled preuzimanja",
        "Name[sr]": "Редослед преузимања",
        "Name[sv]": "Nerladdningsordning",
        "Name[tr]": "İndirme Sırası",
        "Name[uk]": "Порядок отримання",
        "Name[x-test]": "xxDownload Orderxx",
        "Name[zh_CN]": "下载顺序",
        "Name[zh_TW]": "下載順序",
        "Version": "0.1",
        "Website": "http://kde.org/applications/internet/ktorrent/"
    }
}
